16184 23985 282
49089 3778 324
28171 39138 324
35014 27916 311
19832 11222 279
25477 1493 282
1235 32327 308
11184 505 268
20207 43665 324
36967 30816 324
31544 9746 308
929 43989 324
14096 43 276
30290 28516 272
47447 26462 324
49675 30471 324
49565 39198 314
9397 43223 324
38957 45835 314
32673 32449 223
26887 7614 308
9193 48844 324
23035 30941 308
4746 10027 262
17941 16949 279
21660 24383 282
48292 40637 314
20016 39398 324
7397 3131 262
16198 2973 276
2374 7577 262
25428 15001 282
6913 45592 324
21494 1942 279
7696 39952 324
20122 49541 324
16603 39888 324
21132 2314 279
42117 1070 324
45340 11632 324
4237 37580 324
22853 26933 308
6531 14068 276
15291 10201 276
26206 15694 282
18683 12624 279
32755 48335 324
12672 48116 324
35733 12699 324
7979 15159 276
20178 26217 282
12933 36904 324
45159 36477 314
34494 46486 324
34244 45548 324
45624 31417 324
11895 5763 268
19521 21695 274
17455 5331 276
47662 46111 314
20830 15066 279
26511 24425 277
7727 22028 279
27299 48911 324
10658 12163 268
1066 44891 324
36347 29263 324
22775 43097 324
6326 47441 324
14722 38291 324
20774 38219 324
30368 7016 308
31555 28935 285
17171 4985 276
27710 45839 324
20636 8956 279
2841 7348 262
27970 34121 285
28432 129 308
42903 9518 324
29686 8096 308
38769 26457 324
20131 26333 282
34038 38310 324
28925 22379 308
18995 27310 308
25808 22815 282
491 36686 324
19028 46910 324
19288 28136 308
20212 5019 279
412 42493 324
39430 30928 324
8914 17490 276
14174 6505 276
48727 45714 314
34454 36834 324
49452 24590 324
44180 42408 270
18136 46737 324
15223 26675 308
29724 19409 308
23837 28991 308
46223 17132 324
49431 32970 324
5899 39826 324
19222 17944 261
20414 21705 256
31149 29815 272
8646 2092 262
5812 33141 308
23626 37503 324
10439 43011 324
40233 30923 324
43700 9283 324
16283 2771 276
45356 4600 324
39780 3747 324
14443 17187 271
39937 18223 324
37414 34350 324
15149 41884 324
21500 48473 324
48246 47935 252
26269 20192 282
13408 47514 324
27845 6252 308
13644 11444 276
27073 32387 285
16563 17037 266
5540 5761 236
48312 42690 314
16987 26435 282
24068 35439 311
36875 31618 324
27011 45038 324
2305 22415 279
10455 22868 279
45618 1708 324
3986 7550 262
29759 31207 272
10970 20616 279
15579 31645 308
49807 19654 324
36644 38750 306
15848 47657 324
2116 3753 238
25050 21833 282
23587 5637 282
43941 1088 324
22937 7045 279
1300 48477 324
41133 8803 324
9133 3484 262
7212 4068 262
47562 16970 324
17746 33415 308
17254 34349 311
42227 20254 324
13591 45810 324
28794 37745 324
41507 13521 324
25829 3321 282
39494 41930 306
9259 2939 262
28296 26040 308
24176 24700 264
33642 33740 205
4913 33604 308
41826 16743 324
49835 20227 324
32341 11338 308
31684 19569 308
31309 15268 308
36858 24159 324
19563 33189 308
49755 40340 314
27591 48676 324
15080 33120 308
44104 35522 324
2845 45034 324
24929 10858 282
33220 6532 308
17820 32834 308
8819 25183 282
27009 7819 308
39892 1929 324
4079 10601 262
37232 21392 324
2937 2645 217
29663 48284 324
49551 42444 314
40125 10696 324
44633 48778 314
25149 15995 282
1896 27326 308
123 42921 324
37987 30641 324
12898 26411 282
42203 18305 324
8896 20563 279
42621 23339 324
17385 28360 308
3991 3981 52
37432 44559 306
10378 31644 308
20210 18193 274
5154 43004 324
95 14431 276
6259 47766 324
6957 41566 324
45250 37739 314
29299 17936 308
43212 36862 306
42257 24274 324
48332 14726 324
49246 31304 324
19202 32570 308
14817 12747 276
11019 5956 268
46688 19672 324
33969 28600 285
35864 39127 306
3170 17954 279
15490 19828 279
30333 43038 324
1039 44927 324
35770 47314 314
15175 37467 324
